Cell SN,Layer LN,Layer PN,Mag SN,Layer number,Layer Type
NSA0002108100016,ProductPart,ProductLot,A50W-001,0,LayerTypes.Anode
NSA0002108100016,ProductPart,ProductLot,A50W-001,1,LayerTypes.Anode
NSA0002108100016,ProductPart,ProductLot,A50W-001,0,LayerTypes.Cathode
NSA0002108100017,ProductPart,ProductLot,A50W-001,0,LayerTypes.Anode
NSA0002108100017,ProductPart,ProductLot,A50W-001,1,LayerTypes.Anode
NSA0002108100017,,,C47W-001,0,LayerTypes.Cathode
NSA0002108100018,ProductPart,ProductLot,A50W-001,0,LayerTypes.Anode
NSA0002108100018,ProductPart,ProductLot,A50W-001,1,LayerTypes.Anode
NSA0002108100018,,,C47W-001,0,LayerTypes.Cathode
NSA0002108100019,ProductPart,ProductLot,A50W-001,0,LayerTypes.Anode
NSA0002108100019,ProductPart,ProductLot,A50W-001,1,LayerTypes.Anode
NSA0002108100019,,,C47W-001,0,LayerTypes.Cathode
NSA0002108100020,ProductPart,ProductLot,A50W-001,0,LayerTypes.Anode
NSA0002108100020,ProductPart,ProductLot,A50W-001,1,LayerTypes.Anode
NSA0002108100020,,,C47W-001,0,LayerTypes.Cathode
NSA0002108100021,ProductPart,ProductLot,A50W-001,0,LayerTypes.Anode
NSA0002108100021,ProductPart,ProductLot,A50W-001,1,LayerTypes.Anode
NSA0002108100021,,,C47W-001,0,LayerTypes.Cathode
NSA0002108100022,ProductPart,ProductLot,A50W-001,0,LayerTypes.Anode
NSA0002108100022,ProductPart,ProductLot,A50W-001,1,LayerTypes.Anode
NSA0002108100022,ProductPart,ProductLot,A50W-001,0,LayerTypes.Cathode
NSA0002108100023,ProductPart,ProductLot,A50W-001,0,LayerTypes.Anode
NSA0002108100023,ProductPart,ProductLot,A50W-001,1,LayerTypes.Anode
NSA0002108100023,,,C47W-001,0,LayerTypes.Cathode
NSA0002108100024,ProductPart,ProductLot,A50W-001,0,LayerTypes.Anode
NSA0002108100024,ProductPart,ProductLot,A50W-001,1,LayerTypes.Anode
NSA0002108100024,,,C47W-001,0,LayerTypes.Cathode
NSA0002108100025,ProductPart,ProductLot,A50W-001,0,LayerTypes.Anode
NSA0002108100025,ProductPart,ProductLot,A50W-001,1,LayerTypes.Anode
NSA0002108100025,,,C47W-001,0,LayerTypes.Cathode
NSA0002108100026,ProductPart,ProductLot,A50W-001,0,LayerTypes.Anode
NSA0002108100026,ProductPart,ProductLot,A50W-001,1,LayerTypes.Anode
NSA0002108100026,,,C47W-001,0,LayerTypes.Cathode
NSA0002108100027,ProductPart,ProductLot,A50W-001,0,LayerTypes.Anode
NSA0002108100027,ProductPart,ProductLot,A50W-001,1,LayerTypes.Anode
NSA0002108100027,,,C47W-001,0,LayerTypes.Cathode
NSA0002108100028,ProductPart,ProductLot,A50W-001,0,LayerTypes.Anode
NSA0002108100028,ProductPart,ProductLot,A50W-001,1,LayerTypes.Anode
NSA0002108100028,,,C47W-001,0,LayerTypes.Cathode
NSA0002108100029,ProductPart,ProductLot,A50W-001,0,LayerTypes.Anode
NSA0002108100029,ProductPart,ProductLot,A50W-001,1,LayerTypes.Anode
NSA0002108100029,,,C47W-001,0,LayerTypes.Cathode
NSA0002108100030,ProductPart,ProductLot,A50W-001,0,LayerTypes.Anode
NSA0002108100030,ProductPart,ProductLot,A50W-001,1,LayerTypes.Anode
NSA0002108100030,,,C47W-001,0,LayerTypes.Cathode
NSA0022108110001,ProductPart,ProductLot,A50W-001,0,LayerTypes.Anode
NSA0022108110001,ProductPart,ProductLot,A50W-001,1,LayerTypes.Anode
NSA0022108110001,ProductPart,ProductLot,A50W-001,2,LayerTypes.Anode
NSA0022108110001,ProductPart,ProductLot,A50W-001,3,LayerTypes.Anode
NSA0022108110001,ProductPart,ProductLot,A50W-001,4,LayerTypes.Anode
NSA0022108110001,ProductPart,ProductLot,A50W-001,5,LayerTypes.Anode
NSA0022108110001,ProductPart,ProductLot,A50W-001,6,LayerTypes.Anode
NSA0022108110001,ProductPart,ProductLot,A50W-001,7,LayerTypes.Anode
NSA0022108110001,ProductPart,ProductLot,A50W-001,8,LayerTypes.Anode
NSA0022108110001,ProductPart,ProductLot,A50W-001,9,LayerTypes.Anode
NSA0022108110001,,,C47W-001,0,LayerTypes.Cathode
NSA0022108110001,,,C47W-001,1,LayerTypes.Cathode
NSA0022108110001,,,C47W-001,2,LayerTypes.Cathode
NSA0022108110001,,,C47W-001,3,LayerTypes.Cathode
NSA0022108110001,,,C47W-001,4,LayerTypes.Cathode
NSA0022108110001,,,C47W-001,5,LayerTypes.Cathode
NSA0022108110001,,,C47W-001,6,LayerTypes.Cathode
NSA0022108110001,,,C47W-001,7,LayerTypes.Cathode
NSA0022108110001,,,C47W-001,8,LayerTypes.Cathode
NSA0022108110002,ProductPart,ProductLot,A50W-001,0,LayerTypes.Anode
NSA0022108110002,ProductPart,ProductLot,A50W-001,1,LayerTypes.Anode
NSA0022108110002,ProductPart,ProductLot,A50W-001,2,LayerTypes.Anode
NSA0022108110002,ProductPart,ProductLot,A50W-001,3,LayerTypes.Anode
NSA0022108110002,ProductPart,ProductLot,A50W-001,4,LayerTypes.Anode
NSA0022108110002,ProductPart,ProductLot,A50W-001,5,LayerTypes.Anode
NSA0022108110002,ProductPart,ProductLot,A50W-001,6,LayerTypes.Anode
NSA0022108110002,ProductPart,ProductLot,A50W-001,7,LayerTypes.Anode
NSA0022108110002,ProductPart,ProductLot,A50W-001,8,LayerTypes.Anode
NSA0022108110002,ProductPart,ProductLot,A50W-001,9,LayerTypes.Anode
NSA0022108110002,,,C47W-001,0,LayerTypes.Cathode
NSA0022108110002,,,C47W-001,1,LayerTypes.Cathode
NSA0022108110002,,,C47W-001,2,LayerTypes.Cathode
NSA0022108110002,,,C47W-001,3,LayerTypes.Cathode
NSA0022108110002,ProductPart,ProductLot,A50W-001,4,LayerTypes.Cathode
NSA0022108110002,ProductPart,ProductLot,A50W-001,5,LayerTypes.Cathode
NSA0022108110002,ProductPart,ProductLot,A50W-001,6,LayerTypes.Cathode
NSA0022108110002,ProductPart,ProductLot,A50W-001,7,LayerTypes.Cathode
NSA0022108110002,ProductPart,ProductLot,A50W-001,8,LayerTypes.Cathode
NSA0002108100013,ProductPart,ProductLot,A50W-001,0,LayerTypes.Anode
NSA0002108100013,ProductPart,ProductLot,A50W-001,1,LayerTypes.Anode
NSA0002108100013,,,C47W-001,0,LayerTypes.Cathode
NSA0002108100014,ProductPart,ProductLot,A50W-001,0,LayerTypes.Anode
NSA0002108100014,ProductPart,ProductLot,A50W-001,1,LayerTypes.Anode
NSA0002108100014,,,C47W-001,0,LayerTypes.Cathode
NSA0002108100015,ProductPart,ProductLot,A50W-001,0,LayerTypes.Anode
NSA0002108100015,ProductPart,ProductLot,A50W-001,1,LayerTypes.Anode
NSA0002108100015,,,C47W-001,0,LayerTypes.Cathode
